…
Use the viewer to inspect your dataset:

```r
starwars_raw %>%
  View()
```

The tibble format is great to double check the format of your columns:

```r
starwars_raw
```

```
## # A tibble: 87 x 14
##    name  height  mass hair_color skin_color eye_color birth_year sex   gender
##    <chr>  <int> <dbl> <chr>      <chr>      <chr>          <dbl> <chr> <chr> 
##  1 Luke…    172    77 blond      fair       blue            19   male  mascu…
##  2 C-3PO    167    75 <NA>       gold       yellow         112   none  mascu…
##  3 R2-D2     96    32 <NA>       white, bl… red             33   none  mascu…
##  4 Dart…    202   136 none       white      yellow          41.9 male  mascu…
##  5 Leia…    150    49 brown      light      brown           19   fema… femin…
##  6 Owen…    178   120 brown, gr… light      blue            52   male  mascu…
##  7 Beru…    165    75 brown      light      blue            47   fema… femin…
##  8 R5-D4     97    32 <NA>       white, red red             NA   none  mascu…
##  9 Bigg…    183    84 black      light      brown           24   male  mascu…
## 10 Obi-…    182    77 auburn, w… fair       blue-gray       57   male  mascu…
## # … with 77 more rows, and 5 more variables: homeworld <chr>, species <chr>,
## #   films <list>, vehicles <list>, starships <list>
```
…
## Count, count, aaaand count

To get a sense of the data, count stuff and use `sort = TRUE` to arrange things by decreasing counts:

```r
starwars %>% 
  count(name, sort = TRUE) # does a character appear only once
```

```
## # A tibble: 87 x 2
##    name                    n
##    <chr>               <int>
##  1 Ackbar                  1
##  2 Adi Gallia              1
##  3 Anakin Skywalker        1
##  4 Arvel Crynyd            1
##  5 Ayla Secura             1
##  6 Bail Prestor Organa     1
##  7 Barriss Offee           1
##  8 BB8                     1
##  9 Ben Quadinaros          1
## 10 Beru Whitesun lars      1
## # … with 77 more rows
```
…
```
## # A tibble: 2 x 2
##   gender        n
##   <chr>     <int>
## 1 masculine    66
## 2 feminine     17
```

```r
starwars %>% 
  count(species, gender, sort = TRUE) # 
```

```
## # A tibble: 42 x 3
##    species  gender        n
##    <chr>    <chr>     <int>
##  1 Human    masculine    26
##  2 Human    feminine      9
##  3 Droid    masculine     5
##  4 <NA>     <NA>          4
##  5 Gungan   masculine     3
##  6 Mirialan feminine      2
##  7 Wookiee  masculine     2
##  8 Zabrak   masculine     2
##  9 Aleena   masculine     1
## 10 Besalisk masculine     1
## # … with 32 more rows
```

You may want to use the `wt` argument to get a count weighted by another variable. Compare the call to `count()` with and without the `wt` argument in the example below. When `wt = mass` is used, we compute `sum(mass)` for each species, otherwise we compute the number of rows in each species:

```r
starwars %>%
  count(species, wt = mass)
```

```
## # A tibble: 38 x 2
##    species       n
##    <chr>     <dbl>
##  1 Aleena       15
##  2 Besalisk    102
##  3 Cerean       82
##  4 Chagrian      0
##  5 Clawdite     55
##  6 Droid       279
##  7 Dug          40
##  8 Ewok         20
##  9 Geonosian    80
## 10 Gungan      148
## # … with 28 more rows
```

```r
starwars %>%
  count(species)
```

```
## # A tibble: 38 x 2
##    species       n
##    <chr>     <int>
##  1 Aleena        1
##  2 Besalisk      1
##  3 Cerean        1
##  4 Chagrian      1
##  5 Clawdite      1
##  6 Droid         6
##  7 Dug           1
##  8 Ewok          1
##  9 Geonosian     1
## 10 Gungan        3
## # … with 28 more rows
```

You can add the counts to your tibble by using `add_count()`, check out the `n` column:

```r
starwars %>%
  add_count(species, wt = mass)
```

```
## # A tibble: 87 x 5
##    name               gender    species  mass     n
##    <chr>              <chr>     <chr>   <dbl> <dbl>
##  1 Luke Skywalker     masculine Human      77 1821.
##  2 C-3PO              masculine Droid      75  279 
##  3 R2-D2              masculine Droid      32  279 
##  4 Darth Vader        masculine Human     136 1821.
##  5 Leia Organa        feminine  Human      49 1821.
##  6 Owen Lars          masculine Human     120 1821.
##  7 Beru Whitesun lars feminine  Human      75 1821.
##  8 R5-D4              masculine Droid      32  279 
##  9 Biggs Darklighter  masculine Human      84 1821.
## 10 Obi-Wan Kenobi     masculine Human      77 1821.
## # … with 77 more rows
```
…
