…
Set [the theme](https://ggplot2.tidyverse.org/reference/ggtheme.html) you like for data visualisation with `ggplot2`

```r
theme_set(theme_light())
```

For illustration, we use the `starwars` dataset that comes with `tidyverse`

```r
data("starwars")
starwars
```

```
## # A tibble: 87 x 14
##    name  height  mass hair_color skin_color eye_color birth_year sex   gender
##    <chr>  <int> <dbl> <chr>      <chr>      <chr>          <dbl> <chr> <chr> 
##  1 Luke…    172    77 blond      fair       blue            19   male  mascu…
##  2 C-3PO    167    75 <NA>       gold       yellow         112   none  mascu…
##  3 R2-D2     96    32 <NA>       white, bl… red             33   none  mascu…
##  4 Dart…    202   136 none       white      yellow          41.9 male  mascu…
##  5 Leia…    150    49 brown      light      brown           19   fema… femin…
##  6 Owen…    178   120 brown, gr… light      blue            52   male  mascu…
##  7 Beru…    165    75 brown      light      blue            47   fema… femin…
##  8 R5-D4     97    32 <NA>       white, red red             NA   none  mascu…
##  9 Bigg…    183    84 black      light      brown           24   male  mascu…
## 10 Obi-…    182    77 auburn, w… fair       blue-gray       57   male  mascu…
## # … with 77 more rows, and 5 more variables: homeworld <chr>, species <chr>,
## #   films <list>, vehicles <list>, starships <list>
```

## Count, count, aaaand count


```r
starwars %>% 
  count(name, sort = TRUE)
```

```
## # A tibble: 87 x 2
##    name                    n
##    <chr>               <int>
##  1 Ackbar                  1
##  2 Adi Gallia              1
##  3 Anakin Skywalker        1
##  4 Arvel Crynyd            1
##  5 Ayla Secura             1
##  6 Bail Prestor Organa     1
##  7 Barriss Offee           1
##  8 BB8                     1
##  9 Ben Quadinaros          1
## 10 Beru Whitesun lars      1
## # … with 77 more rows
```
…
```r
starwars %>% 
  count(species, sort = TRUE)
```

```
## # A tibble: 38 x 2
##    species      n
##    <chr>    <int>
##  1 Human       35
##  2 Droid        6
##  3 <NA>         4
##  4 Gungan       3
##  5 Kaminoan     2
##  6 Mirialan     2
##  7 Twi'lek      2
##  8 Wookiee      2
##  9 Zabrak       2
## 10 Aleena       1
## # … with 28 more rows
```

```r
starwars %>% 
  count(homeworld, sort = TRUE)
```

```
## # A tibble: 49 x 2
##    homeworld     n
##    <chr>     <int>
##  1 Naboo        11
##  2 Tatooine     10
##  3 <NA>         10
##  4 Alderaan      3
##  5 Coruscant     3
##  6 Kamino        3
##  7 Corellia      2
##  8 Kashyyyk      2
##  9 Mirial        2
## 10 Ryloth        2
## # … with 39 more rows
```
…
